Assignment 14: Twitters Mining with rtweet
…
trends_available()

## # A tibble: 467 x 8
##    name       url           parentid country  woeid countryCode  code place_type
##    <chr>      <chr>            <int> <chr>    <int> <chr>       <int> <chr>     
##  1 Worldwide  http://where~        0 ""           1 <NA>           19 Supername 
##  2 Winnipeg   http://where~ 23424775 "Canada"  2972 CA              7 Town      
##  3 Ottawa     http://where~ 23424775 "Canada"  3369 CA              7 Town      
##  4 Quebec     http://where~ 23424775 "Canada"  3444 CA              7 Town      
##  5 Montreal   http://where~ 23424775 "Canada"  3534 CA              7 Town      
##  6 Toronto    http://where~ 23424775 "Canada"  4118 CA              7 Town      
##  7 Edmonton   http://where~ 23424775 "Canada"  8676 CA              7 Town      
##  8 Calgary    http://where~ 23424775 "Canada"  8775 CA              7 Town      
##  9 Vancouver  http://where~ 23424775 "Canada"  9807 CA              7 Town      
## 10 Birmingham http://where~ 23424975 "United~ 12723 GB              7 Town      
## # ... with 457 more rows

get_trends('Miami')

## # A tibble: 50 x 9
##    trend             url       promoted_content query  tweet_volume place  woeid
##    <chr>             <chr>     <lgl>            <chr>         <int> <chr>  <int>
##  1 Bam Adebayo       http://t~ NA               %22Ba~           NA Miami 2.45e6
##  2 Stone Ocean       http://t~ NA               %22St~       104075 Miami 2.45e6
##  3 #Hawkeye          http://t~ NA               %23Ha~        66499 Miami 2.45e6
##  4 Spotify           http://t~ NA               Spoti~      2347902 Miami 2.45e6
##  5 #minecraftmanhunt http://t~ NA               %23mi~        83253 Miami 2.45e6
##  6 Apple Music       http://t~ NA               %22Ap~       320714 Miami 2.45e6
##  7 Stacey Abrams     http://t~ NA               %22St~        40376 Miami 2.45e6
##  8 Saul              http://t~ NA               Saul          30197 Miami 2.45e6
##  9 Supreme Court     http://t~ NA               %22Su~       220036 Miami 2.45e6
## 10 SCOTUS            http://t~ NA               SCOTUS       126393 Miami 2.45e6
## # ... with 40 more rows, and 2 more variables: as_of <dttm>, created_at <dttm>
…
